{"page":1,"total_results":46,"total_pages":3,"results":[{"vote_count":47,"id":13960,"video":false,"vote_average":6.3,"title":"ATL","popularity":6.792,"poster_path":"/fYXO1hKv7L8dZOQGhKkjCzLLDTW.jpg","original_language":"en","original_title":"ATL","genre_ids":[18,35,9648],"backdrop_path":"/kxYkpbiEV2LrCz0W0L23FP9H1bM.jpg","adult":false,"overview":"As four friends prepare for life after high school, different challenges bring about turning points in each of their lives. The dramas unfold and resolve at their local rollerskating rink, Cascade.","release_date":"2006-03-31"},{"vote_count":0,"id":257104,"video":false,"vote_average":0,"title":"Atlanta","popularity":0.6,"poster_path":null,"original_language":"en","original_title":"Atlanta","genre_ids":[],"backdrop_path":null,"adult":false,"overview":"Canceled TV-pilot about a man and woman who meet at a funeral.","release_date":"2007-05-09"},{"vote_count":1,"id":270445,"video":false,"vote_average":4,"title":"Atlanta","popularity":0.6,"poster_path":"/9Kf2TxrrISn2IkzxFMCnlPueKQi.jpg","original_language":"en","original_title":"Atlanta","genre_ids":[35,18],"backdrop_path":null,"adult":false,"overview":"A 12 year-old Olympic swimmer and her mother (both played by July) speak to the public about “going for the gold”.","release_date":"1996-01-01"},{"vote_count":0,"id":318282,"video":false,"vote_average":0,"title":"Atlanta Boogie","popularity":0.6,"poster_path":"/wpGxa7hCVwghg8EmarpTm2H7DY6.jpg","original_language":"ja","original_title":"アトランタ・ブギ","genre_ids":[],"backdrop_path":null,"adult":false,"overview":"\"Atlanta Boogie\" centers around a mock track meet between the \"normal\" and \"good\" citizens of Yokohama and those they want to expel from the neighborhood: the illegal foreign workers, the deadbeats, the juvenile delinquents, and elderly.","release_date":"1996-11-09"},{"vote_count":0,"id":494064,"video":false,"vote_average":0,"title":"Yawara! Atlanta Special","popularity":0.6,"poster_path":"/rCX2CUYGUzcGZz3vXXf59dWtRgE.jpg","original_language":"ja","original_title":"Yawara! Zutto kimi no koto ga...","genre_ids":[10749,35,18,16],"backdrop_path":null,"adult":false,"overview":"Yawara Inokuma competes for Japan in the Atlanta Olympic Games as she meets with several familiar faces throughout the tournament.","release_date":"1996-07-19"},{"vote_count":0,"id":190366,"video":false,"vote_average":0,"title":"Atlanta Homecoming","popularity":0.6,"poster_path":"/8lhhdHKM7ZxKhfiomEDshw7hsrw.jpg","original_language":"en","original_title":"Atlanta Homecoming","genre_ids":[10402],"backdrop_path":"/1kzBldawdw0gtmzKYhNv1jeM6ze.jpg","adult":false,"overview":"Filmed at one of the largest Homecoming concert events ever at the Georgia Dome, Atlanta, Georgia; Atlanta Homecoming contains live performances of some of your favourite songs and artists.","release_date":"1998-01-01"},{"vote_count":0,"id":328349,"video":false,"vote_average":0,"title":"Atlanta Blue","popularity":0.6,"poster_path":"/n0fTvSRcSP77kfgcViZvPaIsGV.jpg","original_language":"en","original_title":"Atlanta Blue","genre_ids":[],"backdrop_path":null,"adult":false,"overview":"Atlanta cop goes undercover to bust a drug operation in a traveling carnival.","release_date":"1999-01-10"},{"vote_count":0,"id":353083,"video":true,"vote_average":0,"title":"Atlanta Heat","popularity":0.6,"poster_path":"/x6hPBXQ5Uxnijgfdli7q5IaFpz1.jpg","original_language":"en","original_title":"Atlanta Heat","genre_ids":[],"backdrop_path":null,"adult":false,"overview":"Sadie Parks is part of an elite team of undercover detectives cleaning up the streets of Atlanta. She gets caught up in the corruption and uses her badge to cover up her wrong doings. She's cold blooded and can't be trusted. Her Chief has suspicions but has not involved Internal Affairs. She lives a double life and when things begin to unfold and lives are compromised she must take action.","release_date":"2012-01-29"},{"vote_count":9,"id":243856,"video":false,"vote_average":3.4,"title":"Blast","popularity":1.235,"poster_path":"/kkLIvAsXHsQCpcReoIEa5NHa9O8.jpg","original_language":"en","original_title":"Blast","genre_ids":[28],"backdrop_path":"/eLjfh4A3iWgQVImAbSrdqY4PWjm.jpg","adult":false,"overview":"Terrorists attempt to disrupt the Atlanta Olympics by kidnapping the U.S. women's swim team. If their demands are not met, the team will be executed. Only janitor Jack Bryant, a former Olympic gymnast champion of Tae Kwon Do felled by injuries and alcoholism knows of their real plans. And only he, with the guidance of former terrorist-fighter Leo, can stop them.","release_date":"1997-03-13"},{"vote_count":0,"id":354763,"video":false,"vote_average":0,"title":"Skrydis per Atlantą","popularity":0.6,"poster_path":"/t3m4YP5oqmm9LL3pmHDTGJxMCDt.jpg","original_language":"en","original_title":"Skrydis per Atlantą","genre_ids":[18,36],"backdrop_path":null,"adult":false,"overview":"Stefan Darius and Stays Girenas attempt to flight over Atlantic ocean.","release_date":"1983-01-01"},{"vote_count":0,"id":338788,"video":false,"vote_average":0,"title":"30 Days in Atlanta","popularity":0.6,"poster_path":"/kxAhEn5RQ7wh5VY8iATOz0kFRo0.jpg","original_language":"en","original_title":"30 Days in Atlanta","genre_ids":[35],"backdrop_path":null,"adult":false,"overview":"Akpos wins a 30-day holiday for two to Atlanta, Georgia. He takes his cousin (Richard), an IT specialist on the all- expense paid trip. Akpos flung his unique personality, showing-off his smartness and foolishness in an exciting mix of rhetoric andwitty humour.","release_date":"2014-10-30"},{"vote_count":0,"id":421986,"video":true,"vote_average":0,"title":"Halestorm: Live In Atlanta","popularity":0.6,"poster_path":"/ztW3Gptngs5owaTEJV2XJM9hc1T.jpg","original_language":"en","original_title":"Halestorm: Live In Atlanta","genre_ids":[],"backdrop_path":null,"adult":false,"overview":"Halestorm: Live In Atlanta","release_date":"2015-04-23"},{"vote_count":0,"id":531505,"video":false,"vote_average":0,"title":"Atlanta Central Library","popularity":0.6,"poster_path":"/cTCNR4lSxLnwzxdqMj39grX1oG6.jpg","original_language":"en","original_title":"Atlanta Central Library","genre_ids":[],"backdrop_path":null,"adult":false,"overview":"A 16mm film of the Atlanta Central Library, Marcel Breuer's last building. The library was commissioned in 1969, and built in 1980, one year before Breuer's death. In 2016, when work for this film began, the library was under threat of demolition or sale.","release_date":"2018-01-01"},{"vote_count":4,"id":25326,"video":false,"vote_average":6.3,"title":"Destiny's Child: Live in Atlanta","popularity":0.728,"poster_path":"/yQolE9RJ2vR9A75lwAYuM33n83o.jpg","original_language":"en","original_title":"Destiny's Child: Live in Atlanta","genre_ids":[10402],"backdrop_path":"/nc8P4FowTzYwvbUzM9CLTGjByXC.jpg","adult":false,"overview":"Though officially disbanded, Destiny's Child proves in this concert video why they're one of the most successful soul/R&amp;B groups of all time. Filmed at Atlanta's Phillips Arena during their Destiny Fulfilled farewell tour, the trio pulled all the stops--short of flying over the audience--to put on a spectacular show for their fans. Opening the show with their Grammy-winning \"Say My Name,\" the group--who famously sang while running around a track as girls to build their lung strength--belted their harmonies and runs while dancing through a medley of hits including \"No, No, No,\" \"Bugaboo,\" \"Bills, Bills, Bills,\" \"Bootylicious\" and \"Jumpin' Jumpin.'\"","release_date":"2006-03-28"},{"vote_count":3,"id":166899,"video":false,"vote_average":5.5,"title":"Who Killed Atlanta's Children?","popularity":0.931,"poster_path":"/jSPQp4eWo4Z6vztVZOziDytannT.jpg","original_language":"nl","original_title":"Who Killed Atlanta's Children?","genre_ids":[],"backdrop_path":null,"adult":false,"overview":"From 1979 to 1981, 29 African-American males, mostly children, were either missing or found murdered in metro Atlanta. The cases plagued the city until 1982, when Wayne Wiiliams was convicted of the murders of two adult men. Authorities then considered the other cases closed. Some of the parents of the slain children were critical of the way the cases were handled and believed there was some sort of cover up. Nearly four years after the conviction of Williams, \"Spin\" magazine editor Ron Larson and reporter Pat Laughlin come to Atlanta in search of the truth.","release_date":"2000-07-15"},{"vote_count":0,"id":188186,"video":false,"vote_average":0,"title":"Pink Floyd - Live In Atlanta","popularity":0.6,"poster_path":"/tg5xyUrqK1IbEZfwv6CS7GHutvc.jpg","original_language":"en","original_title":"Pink Floyd - Live In Atlanta","genre_ids":[10402],"backdrop_path":"/n43arCKfZTny5w86rNR0eAy43OO.jpg","adult":false,"overview":"The full concert from early on in the tour to promote A Momentary Lapse Of Reason from Atlanta in 1987.","release_date":""},{"vote_count":0,"id":263474,"video":false,"vote_average":0,"title":"Casting Crowns - Live From Atlanta","popularity":0.6,"poster_path":"/HWD33IlB3A9TIYmMJ11SptZauc.jpg","original_language":"pt","original_title":"Casting Crowns - Live From Atlanta","genre_ids":[],"backdrop_path":"/xM33XPbZ68YRI0b3JL51sk9oPel.jpg","adult":false,"overview":"","release_date":"2004-09-14"},{"vote_count":0,"id":480686,"video":false,"vote_average":0,"title":"DGM - Live In Atlanta","popularity":0.6,"poster_path":"/e47UQGPRrw49yc6j2SAmwCDO823.jpg","original_language":"en","original_title":"DGM - Live In Atlanta","genre_ids":[10402],"backdrop_path":null,"adult":false,"overview":"DGM Live In ProgPower Festival in Atlanta","release_date":"2014-09-11"},{"vote_count":0,"id":87652,"video":false,"vote_average":0,"title":"Jimi Hendrix: Woodstock, Monterey, Atlanta","popularity":0.6,"poster_path":"/bqxSNcNNtRuqIo1HffniAtKcHY6.jpg","original_language":"en","original_title":"Jimi Hendrix: Woodstock, Monterey, Atlanta","genre_ids":[10402],"backdrop_path":null,"adult":false,"overview":"Jimi Hendrix: Woodstock, Monterey, Atlanta","release_date":""},{"vote_count":0,"id":320566,"video":false,"vote_average":0,"title":"The Brooklyn All-Stars: Live in Atlanta","popularity":0.6,"poster_path":null,"original_language":"en","original_title":"The Brooklyn All-Stars: Live in Atlanta","genre_ids":[],"backdrop_path":null,"adult":false,"overview":"Renowned gospel group the Brooklyn All-Stars celebrate their sixth decade of wowing audiences with this memorable concert. Founder Thomas J. Spann and the band pull out all the stops at this show from Atlanta's Emmanuel Tabernacle Baptist Church. Highlights from the 12-song set include \"I'll Make Heaven My Home,\" \"I Stood on the Banks of Jordan,\" \"Did You Stop to Pray\" and \"I Don't Want to Be Lost.\"","release_date":"2007-06-12"}]}